Phoenix Analysis
…
#comparisons_1 <- comparisons_1 %>% 
  #mutate(Legacy_Features = future_map(Striae, extract_features_all_legacy, resolution = 1.5625)) # Obtaining feature leacy

#comparisons_legacy_1 <- comparisons_1 %>% 
  #select(-features) %>%
  #tidyr::unnest(Legacy_Features) # Extracting feature legacy

Phoenix_Comparisons <- Phoenix_Comparisons %>%
  tidyr::unnest(features)

head(Phoenix_Comparisons, 500)

## # A tibble: 500 x 28
##    Bullet1 Bullet2 sig1  sig2  Aligned Striae   ccf   cms  cms2 cms2_per_mm
##    <chr>   <chr>   <lis> <lis> <list>  <list> <dbl> <dbl> <dbl>       <dbl>
##  1 A9-B1-1 A9-B1-1 <lis <lis <named <name 1        39    19       4.31 
##  2 A9-B1-1 A9-B1-2 <lis <lis <named <name 0.504     2     3       0.707
##  3 A9-B1-1 A9-B1-3 <lis <lis <named <name 0.337     2     4       0.961
##  4 A9-B1-1 A9-B1-4 <lis <lis <named <name 0.339     3     2       0.502
##  5 A9-B1-1 A9-B1-5 <lis <lis <named <name 0.227     2     2       0.480
##  6 A9-B1-1 A9-B1-6 <lis <lis <named <name 0.292     2     2       0.477
##  7 A9-B1-1 A9-B2-1 <lis <lis <named <name 0.539     2     2       0.461
##  8 A9-B1-1 A9-B2-2 <lis <lis <named <name 0.272     4     5       1.18 
##  9 A9-B1-1 A9-B2-3 <lis <lis <named <name 0.365     3     2       0.454
## 10 A9-B1-1 A9-B2-4 <lis <lis <named <name 0.187     1     0       0    
## #  with 490 more rows, and 18 more variables: cms_per_mm <dbl>, D <dbl>,
## #   lag <dbl>, lag_mm <dbl>, left_cms <dbl>, length <dbl>,
## #   length_mm <dbl>, matches <dbl>, matches_per_mm <dbl>,
## #   mismatches <dbl>, mismatches_per_mm <dbl>, non_cms <dbl>,
## #   non_cms_per_mm <dbl>, overlap <dbl>, right_cms <dbl>, rough_cor <dbl>,
## #   sd_D <dbl>, sum_peaks <dbl>
…
# Barrel F6 seems to have a relationship with one of the bullets in question. That bullets is E.

Bullet_Scores_1 <- Phoenix_Comparisons %>% 
  group_by(BulletA, BulletB) %>% 
    tidyr::nest()

Bullet_Scores_1 <- Bullet_Scores_1 %>% 
  mutate(Bullet_Score = data %>% 
          future_map_dbl(.f = function(d) max(compute_average_scores(land1 = d$LandA, land2 = d$LandB, d$rfscore))))

Bullet_Scores_1 %>% 
  select(-data) %>% 
    arrange(desc(Bullet_Score))

## # A tibble: 169 x 3
##    BulletA BulletB Bullet_Score
##    <chr>   <chr>          <dbl>
##  1 B       B              0.977
##  2 E       E              0.977
##  3 H       H              0.977
##  4 J       J              0.977
##  5 K       K              0.977
##  6 N       N              0.977
##  7 Q       Q              0.977
##  8 T       T              0.977
##  9 Y       Y              0.977
## 10 Z       Z              0.977
## #  with 159 more rows
…
